 27
** Atomic data from version 5.2 of the CHIANTI database **
%Experimental energy levels: Martin, W. C., Sugar, J., Musgrove, A., and Dalton, G. R., 1995,
   NIST Database for Atomic Spectroscopy, Version 1.0, NIST Standard Reference Database 61.
%Theoretical energy levels: Bhatia and Doschek, 1998, ADNDT, 68, 49
%Comment: the energy of the (2D)1P (39) level listed by NIST and Kelly 1987 has been assigned
         to the (2P)1P (47) level following Fawcett 1986, ADNDT, 35, 185, because there is a
         better agreement with the theoretical energy (also in line with the rest of the configuration)
         and with the wavelengths by Kelly and NIST.
% produced as part of the Arcetri/Cambridge/NRL 'CHIANTI' atomic data base collaboration
%
%  E. Landi 2000
%Experimental energy levels: Martin, W.C., Sugar, J., Musgrove, A., Dalton, G.R., 1995, 
    NIST Database for Atomic Spectroscopy, Version 1.0, NIST Standard Reference Database 61.
%Theoretical energy levels: Bhatia and Doscheck, 1998, ADNDT, 68, 49
%radiative transition probabilities: Bhatia and Doscheck, 1998, ADNDT, 68, 49
% produced as part of the Arcetri/Cambridge/NRL 'CHIANTI' atomic data base collaboration CHIANTI
%
% E.Landi 1998

%filename: ni_13.splups
%oscillator strengths: Bhatia & Doscheck, 1998, ADNDT, 68, 49
%collision strengths: Bhatia & Doscheck, 1998, ADNDT, 68, 49
%comment: added collision strengths for transitions involving levels 14,21,23,24,25. Level
          populations are affected at densities higher than 10^9 cm^-3 (Jun 2003).
%produced as part of the Arcetri/Cambridge/NRL 'CHIANTI' atomic data base collaboration
%
% E.Landi - June 2003
 5 23 0
  1  3s2.3p4 3P2
  2  3s2.3p4 3P1
  3  3s2.3p4 3P0
  4  3s2.3p4 1D2
  5  3s2.3p4 1S0
     100.0
     158.5
     251.2
     398.1
     631.0
    1000.0
    1584.9
    2511.9
    3981.1
    6309.6
   10000.0
   15848.9
   25118.9
   39810.7
   63095.8
  100000.0
  158489.2
  251188.7
  398107.1
  630957.6
 1000000.0
 1584892.5
 2511887.0
0
  1  2   2.52e-01
  0  0   2.52e-01
  0  0   2.52e-01
  0  0   2.52e-01
  0  0   2.52e-01
  0  0   2.52e-01
  0  0   2.52e-01
  0  0   2.52e-01
  0  0   2.52e-01
  0  0   2.52e-01
  0  0   2.52e-01
  0  0   2.52e-01
  0  0   2.52e-01
  0  0   2.51e-01
  0  0   2.51e-01
  0  0   2.50e-01
  0  0   2.49e-01
  0  0   2.48e-01
  0  0   2.45e-01
  0  0   2.41e-01
  0  0   2.36e-01
  0  0   2.28e-01
  0  0   2.17e-01
  1  3   1.06e-01
  0  0   1.06e-01
  0  0   1.06e-01
  0  0   1.06e-01
  0  0   1.06e-01
  0  0   1.06e-01
  0  0   1.06e-01
  0  0   1.06e-01
  0  0   1.06e-01
  0  0   1.06e-01
  0  0   1.06e-01
  0  0   1.06e-01
  0  0   1.06e-01
  0  0   1.05e-01
  0  0   1.05e-01
  0  0   1.05e-01
  0  0   1.05e-01
  0  0   1.05e-01
  0  0   1.04e-01
  0  0   1.04e-01
  0  0   1.03e-01
  0  0   1.01e-01
  0  0   9.91e-02
  1  4   1.47e-01
  0  0   1.47e-01
  0  0   1.47e-01
  0  0   1.47e-01
  0  0   1.47e-01
  0  0   1.47e-01
  0  0   1.47e-01
  0  0   1.47e-01
  0  0   1.47e-01
  0  0   1.47e-01
  0  0   1.47e-01
  0  0   1.47e-01
  0  0   1.47e-01
  0  0   1.46e-01
  0  0   1.46e-01
  0  0   1.45e-01
  0  0   1.44e-01
  0  0   1.42e-01
  0  0   1.39e-01
  0  0   1.34e-01
  0  0   1.28e-01
  0  0   1.20e-01
  0  0   1.10e-01
  1  5   7.57e-03
  0  0   7.57e-03
  0  0   7.57e-03
  0  0   7.57e-03
  0  0   7.56e-03
  0  0   7.56e-03
  0  0   7.56e-03
  0  0   7.56e-03
  0  0   7.56e-03
  0  0   7.55e-03
  0  0   7.54e-03
  0  0   7.53e-03
  0  0   7.51e-03
  0  0   7.48e-03
  0  0   7.43e-03
  0  0   7.36e-03
  0  0   7.24e-03
  0  0   7.06e-03
  0  0   6.80e-03
  0  0   6.41e-03
  0  0   5.88e-03
  0  0   5.23e-03
  0  0   4.51e-03
  2  3   4.01e-02
  0  0   4.01e-02
  0  0   4.01e-02
  0  0   4.01e-02
  0  0   4.01e-02
  0  0   4.01e-02
  0  0   4.01e-02
  0  0   4.01e-02
  0  0   4.01e-02
  0  0   4.01e-02
  0  0   4.00e-02
  0  0   3.99e-02
  0  0   3.98e-02
  0  0   3.97e-02
  0  0   3.94e-02
  0  0   3.90e-02
  0  0   3.83e-02
  0  0   3.73e-02
  0  0   3.59e-02
  0  0   3.37e-02
  0  0   3.08e-02
  0  0   2.71e-02
  0  0   2.30e-02
  2  4   7.46e-02
  0  0   7.46e-02
  0  0   7.46e-02
  0  0   7.46e-02
  0  0   7.46e-02
  0  0   7.46e-02
  0  0   7.46e-02
  0  0   7.46e-02
  0  0   7.45e-02
  0  0   7.45e-02
  0  0   7.44e-02
  0  0   7.43e-02
  0  0   7.41e-02
  0  0   7.38e-02
  0  0   7.34e-02
  0  0   7.27e-02
  0  0   7.17e-02
  0  0   7.01e-02
  0  0   6.77e-02
  0  0   6.41e-02
  0  0   5.93e-02
  0  0   5.32e-02
  0  0   4.64e-02
  2  5   1.08e-02
  0  0   1.08e-02
  0  0   1.08e-02
  0  0   1.08e-02
  0  0   1.08e-02
  0  0   1.08e-02
  0  0   1.08e-02
  0  0   1.08e-02
  0  0   1.08e-02
  0  0   1.07e-02
  0  0   1.07e-02
  0  0   1.07e-02
  0  0   1.07e-02
  0  0   1.06e-02
  0  0   1.05e-02
  0  0   1.04e-02
  0  0   1.02e-02
  0  0   9.92e-03
  0  0   9.47e-03
  0  0   8.84e-03
  0  0   7.99e-03
  0  0   6.95e-03
  0  0   5.81e-03
  3  4   3.24e-02
  0  0   3.24e-02
  0  0   3.24e-02
  0  0   3.24e-02
  0  0   3.24e-02
  0  0   3.24e-02
  0  0   3.24e-02
  0  0   3.24e-02
  0  0   3.24e-02
  0  0   3.24e-02
  0  0   3.24e-02
  0  0   3.24e-02
  0  0   3.23e-02
  0  0   3.22e-02
  0  0   3.21e-02
  0  0   3.19e-02
  0  0   3.16e-02
  0  0   3.12e-02
  0  0   3.04e-02
  0  0   2.94e-02
  0  0   2.79e-02
  0  0   2.59e-02
  0  0   2.36e-02
  3  5   2.03e-03
  0  0   2.03e-03
  0  0   2.03e-03
  0  0   2.03e-03
  0  0   2.03e-03
  0  0   2.03e-03
  0  0   2.03e-03
  0  0   2.03e-03
  0  0   2.03e-03
  0  0   2.03e-03
  0  0   2.03e-03
  0  0   2.02e-03
  0  0   2.01e-03
  0  0   2.00e-03
  0  0   1.99e-03
  0  0   1.96e-03
  0  0   1.92e-03
  0  0   1.86e-03
  0  0   1.77e-03
  0  0   1.65e-03
  0  0   1.48e-03
  0  0   1.28e-03
  0  0   1.05e-03
  4  5   3.12e-01
  0  0   3.12e-01
  0  0   3.12e-01
  0  0   3.12e-01
  0  0   3.12e-01
  0  0   3.12e-01
  0  0   3.12e-01
  0  0   3.12e-01
  0  0   3.12e-01
  0  0   3.12e-01
  0  0   3.12e-01
  0  0   3.12e-01
  0  0   3.12e-01
  0  0   3.12e-01
  0  0   3.12e-01
  0  0   3.12e-01
  0  0   3.11e-01
  0  0   3.11e-01
  0  0   3.10e-01
  0  0   3.09e-01
  0  0   3.08e-01
  0  0   3.05e-01
  0  0   3.01e-01
 0 0 0
  1  2   1.574e+02
  1  3   3.702e-02
  1  4   2.590e+02
  1  5   2.731e+00
  2  3   1.069e-02
  2  4   1.845e+01
  2  5   2.545e+03
  3  4   3.440e-03
  3  5   0.000e+00
  4  5   1.163e+01
  1  5        0.0
  2  3    19541.8
  3  1    20060.0
  4  5    47032.9
  5  1    97836.2
